{
  "page": 1,
  "limit": 10,
  "explicit": false,
  "total": 1000,
  "has_more": true,
  "list": [
    {
      "id": "x2onzxq",
      "screenname": "dm_6427cdd0f07b79c8f33e4efa322964b5"
    },
    {
      "id": "x2onzx8",
      "screenname": "world visionpackers"
    },
    {
      "id": "x2onzwt",
      "screenname": "\uc628\ub77c\uc778\uce74\uc9c0\ub178\uff3c\uff3b \uff2b\uff28\uff17\uff13\uff0e\uff23\uff2f\uff2d \uff3d\uff3c\uc804\ub7b5\uc740 \ubb34\uc218\ud788 \ub9ce\uc2b5"
    },
    {
      "id": "x2onzv8",
      "screenname": "\ud574\uc678\ubc30\uad6c\ud1a0\ud1a0\u3010 \uff37\uff21\uff17\uff10\uff12\u3002\uff23\uff2f\uff2d \u3011\ud574\uc678\ubc30\ud305\ubc29\ubc95"
    },
    {
      "id": "x2onzv2",
      "screenname": "amr softec"
    },
    {
      "id": "x2onzul",
      "screenname": "Advantco International"
    },
    {
      "id": "x2onzuf",
      "screenname": "Donghua Ruler"
    },
    {
      "id": "x2onzud",
      "screenname": "dm_a6352b0e63519e5af58508edafc670b5"
    },
    {
      "id": "x2onztl",
      "screenname": "AHMED ASHIK"
    },
    {
      "id": "x2onzsl",
      "screenname": "Hitkidd"
    }
  ]
}